<?xml version="1.0" encoding="utf-8"?>
<!-- Generator: Adobe Illustrator 20.1.0, SVG Export Plug-In . SVG Version: 6.00 Build 0)  -->
<svg version="1.1" id="Camada_1" xmlns="http://www.w3.org/2000/svg" xmlns:xlink="http://www.w3.org/1999/xlink" x="0px" y="0px"
	 viewBox="0 0 1500 1800.4" style="enable-background:new 0 0 1500 1800.4;" xml:space="preserve">
<style type="text/css">
	.st0{fill:#C9402E;}
</style>
<g>
	<path class="st0" d="M1152.4,464.5c-28.6,30.6-56.8,60.9-85.3,91.3c-12.9-30.6-25.7-60.9-38.6-91.3H1152.4z"/>
	<path class="st0" d="M749.5,413.5H561.4c0,29.7,0,59.3,0,88.9c0,0,0.1,0.1,0.1,0.1c0.1,0,0.1,0.1,0.2,0.1c1.1-0.5,2.3-1,3.4-1.6
		c61.4-29,122.8-58,184.1-87C749.4,413.9,749.4,413.8,749.5,413.5"/>
</g>
</svg>
