<?xml version="1.0" encoding="utf-8"?>
<!-- Generator: Adobe Illustrator 20.1.0, SVG Export Plug-In . SVG Version: 6.00 Build 0)  -->
<svg version="1.1" id="Camada_1" xmlns="http://www.w3.org/2000/svg" xmlns:xlink="http://www.w3.org/1999/xlink" x="0px" y="0px"
	 viewBox="0 0 1500 1800.4" style="enable-background:new 0 0 1500 1800.4;" xml:space="preserve">
<style type="text/css">
	.st0{fill:#C9402E;}
</style>
<g>
	<path class="st0" d="M736.6,1346.4h-219V973.1c0.2-0.2,0.6-0.4,1-0.7c3.9-2.5,7.9-4.9,11.8-7.4c0.7-0.5,1.4-0.8,2.4-0.5
		c17.3,6.2,34.6,12.2,51.1,20.3c16.7,8.1,32.4,17.7,47.7,28.2c9.7,6.6,19.2,13.5,28,21.3c11.3,10,20.9,21.4,29.4,33.9
		c15.4,22.5,27.5,46.8,37.2,72.3c8.6,22.5,15.2,45.6,20.1,69.2c1.5,7,2.2,14.1,2.7,21.3c0.5,8,0.8,16,0.5,24
		c-0.4,8.5-0.7,17.1-1.5,25.6c-0.9,9.7-2.1,19.4-3.6,29c-1.7,11.6-4.2,23.1-7.1,34.4C737,1344.8,736.8,1345.6,736.6,1346.4"/>
	<path class="st0" d="M1064.3,935.7c0.4,0.2,0.8,0.4,1.1,0.7c18,12.5,37.8,21,58.8,26.9c13.7,3.8,27.5,6.4,41.6,7.6
		c6.3,0.5,12.6,0.8,19,1.2c0.4,0,0.8,0.1,1.2,0.1c0.5,1.6,0.7,374,0.2,378c-1.5,0.4-182,0.6-185.8,0.2c-0.3-0.6-0.6-1.3-0.9-2
		c-23.3-51.1-46.5-102.1-69.8-153.2c-0.7-1.5-1-3-1.1-4.6c-1.5-16.2-2.4-32.5-1.3-48.8c1.3-20.1,3.8-40.1,8.6-59.7
		c7.8-32.1,23-60.4,44.7-85.2c23-26.3,50.5-46.5,82.5-60.6C1063.4,936.1,1063.9,935.9,1064.3,935.7"/>
</g>
</svg>
