<?xml version="1.0" encoding="utf-8"?>
<!-- Generator: Adobe Illustrator 20.1.0, SVG Export Plug-In . SVG Version: 6.00 Build 0)  -->
<svg version="1.1" id="Camada_1" xmlns="http://www.w3.org/2000/svg" xmlns:xlink="http://www.w3.org/1999/xlink" x="0px" y="0px"
	 viewBox="0 0 1500 1800.4" style="enable-background:new 0 0 1500 1800.4;" xml:space="preserve">
<style type="text/css">
	.st0{fill:#C9402E;}
</style>
<g>
	<path class="st0" d="M1380,359.4c0.1-0.1,0.2-0.3,0.3-0.4c-0.9-0.7-1.7-1.5-2.6-1.9c-5.5-2.2-10.9-4.7-16.5-6.4
		c-14-4.4-28.5-6.6-43.1-7.5c-8.1-0.5-16.2-0.6-24.3-0.2c-8.8,0.4-17.5,1.3-26.2,3.1c-9,1.9-17.8,4.6-26.1,8.8
		c-3.2,1.6-6.2,3.6-8.8,6.2c-0.4,0.4-0.6,0.8-1,1.2c0.9-0.1,1.6-0.4,2.2-0.8c29.9-14.6,61.4-19.1,94.3-14.9
		c13.1,1.7,26,4.7,38.7,8.6C1371.4,356.5,1375.7,358,1380,359.4 M1238.3,404.7c2.6,0.6,5.2,1.2,7.7,1.7c9.2,1.9,18.3,3.9,27.2,6.9
		c6.1,2.1,12.5,3.4,18.9,4c7.7,0.7,15.2,0,22.6-2.2c9.5-2.7,19-5.7,28.5-8.5c0.3-0.1,0.5-0.3,0.7-0.4c-0.4-1.1-0.5-1.2-1.1-1.1
		c-1.2,0.2-2.4,0.4-3.5,0.6c-7.1,1.3-14.3,2.5-21.5,2.8c-4.4,0.2-8.8,0.6-13.3,0.9c-9.4,0.6-18.9,0.5-28.2-0.8
		c-8.4-1.2-16.7-2.6-25-3.9C1246.9,404.2,1242.7,403.8,1238.3,404.7 M1397.7,312.3c1.7,5.9,5.2,10.4,9.8,14.2c2.2,1.8,4.6,3.5,7,5
		c8.4,5.2,17.6,8.5,27,11.1c2.6,0.7,5.1,1.3,7.8,2c-0.3,4.9-0.5,9.8-0.8,14.6c-0.3,5-0.7,10-1,14.9c-0.5,6.9-1.1,13.7-1.6,20.6
		c-0.3,4.3-0.7,8.6-0.9,12.8c-0.1,1.9,0.2,3.8,0.2,5.7c-0.1,6.8-0.3,13.6-0.3,20.5c0,5.7,0.3,11.4,0.4,17.1c0,2-0.2,3.9-0.2,5.8
		c-2.6-0.1-5.1-0.1-7.5-0.1c-26.8,0-53.6,0-80.5,0h-139.2H1194h-2.4v-144C1193.2,312,1391.1,311.8,1397.7,312.3"/>
	<path class="st0" d="M121.7,1281.9c-1.4,1-0.9,2.3-0.8,3.5c0.4,6.7,1.1,13.3,1.4,20c0.2,3.4,1.3,6.3,3.7,8.7
		c0.4,0.4,0.7,0.8,1.1,1.2c2.1,2.3,2.2,3,0.4,5.7c-0.1,0.1-0.2,0.2-0.2,0.3c-0.7,1.1-0.5,2.1,0.7,2.6c0.8,0.3,1.8,0.4,2.7,0.4
		c4.2-0.4,8.4-1.2,12.4-2.6c5-1.8,9.9-3.7,14.9-5.5c0.4-0.1,0.8-0.4,1.1-0.6c-3.8-0.5-7.5-0.6-11.2,0.2c-2.5,0.5-5,1.1-7.6,1.6
		c-6.4,1.1-11.5-1.2-14.8-6.8c-1.5-2.6-2.6-5.4-2.8-8.4c-0.2-3.8-0.2-7.7-0.4-11.5C122.2,1287.7,121.9,1284.8,121.7,1281.9
		 M94.4,1263.6c1.7-0.1,3.2-0.3,4.7-1c10.8-5.1,21.7-5.2,32.7-0.7c5.7,2.3,10.8,5.6,15.7,9.3c4.3,3.2,8.5,6.6,12.7,9.9
		c0.8,0.6,1.6,1.3,2.6,1.5c0.9-1.1,0.1-1.7-0.5-2.3c-3.2-2.9-6.3-5.9-9.6-8.6c-6.2-5.3-13-9.8-20.6-12.9c-6.2-2.5-12.6-4.1-19.3-3.5
		c-6.5,0.6-12.3,3-17.7,6.5C94.4,1262.2,93.9,1262.6,94.4,1263.6 M90.5,1219.3h155.9c0.3,2.8,0.5,5.6,0.9,8.3
		c2.6,15.9,15.3,29.1,31.1,31.6c14.6,2.4,26.6-2.6,36-13.9c0.4-0.5,0.9-1.1,1.6-1.9v102.8H51.4c0.4-0.6,0.8-1.2,1.1-1.7
		c13.4-17.7,25.8-36.1,37.7-54.8c0.7-1.2,1.4-2.4,2.2-3.6c3.4-5,3.9-10.5,2.3-16.2c-1.8-6.3-3.1-12.7-4-19.2
		c-1.1-8.6-1.4-17.3-0.8-26C90.2,1223,90.3,1221.2,90.5,1219.3"/>
</g>
</svg>
