<?xml version="1.0" encoding="utf-8"?>
<!-- Generator: Adobe Illustrator 20.1.0, SVG Export Plug-In . SVG Version: 6.00 Build 0)  -->
<svg version="1.1" id="Camada_1" xmlns="http://www.w3.org/2000/svg" xmlns:xlink="http://www.w3.org/1999/xlink" x="0px" y="0px"
	 viewBox="0 0 1500 1800.4" style="enable-background:new 0 0 1500 1800.4;" xml:space="preserve">
<style type="text/css">
	.st0{fill:#C9402E;}
</style>
<g>
	<path class="st0" d="M1058.7,556.4H957.7c-0.2-0.4-0.3-0.7-0.5-1.1c-6.2-19.8-12.4-39.6-18.5-59.4c-2.1-7-3.9-14.1-5.5-21.2
		c-0.8-3.3-0.8-6.7-1.2-10.1h87.8C1032.7,494.9,1045.7,525.5,1058.7,556.4"/>
	<path class="st0" d="M553.7,505.1v-91.5c-0.7,0-1.3-0.1-2-0.1c-21.2,0-42.4,0-63.6,0c-12.3,0-24.5-0.1-36.8,0
		c-1.4,0-2.2-0.6-2.9-1.6c-8-10.9-16.4-21.5-25.7-31.4c-4.2-4.5-8.8-8.7-13.2-12.9c-1.3-1.2-2.8-2.2-4.2-3.4
		c-3.9-3.3-7.1-7.3-10.7-10.9c-2.5-2.6-5-5.2-7.7-7.5c-13.3-11.2-35.1-12.7-49.9,3.2c-9.6,10.3-15.7,22.5-18.8,36.2
		c-1.9,8.7-2.4,17.4-1.8,26.3c1.4,21.4,8.7,40.8,20,58.8c7.5,12.1,16.4,23.2,26.5,33.1c1.2,1.2,2.4,1.7,4.2,1.7
		c61.3,0,122.6,0,183.9,0H553.7z"/>
</g>
</svg>
