<?xml version="1.0" encoding="utf-8"?>
<!-- Generator: Adobe Illustrator 20.1.0, SVG Export Plug-In . SVG Version: 6.00 Build 0)  -->
<svg version="1.1" id="Camada_1" xmlns="http://www.w3.org/2000/svg" xmlns:xlink="http://www.w3.org/1999/xlink" x="0px" y="0px"
	 viewBox="0 0 1500 1800.4" style="enable-background:new 0 0 1500 1800.4;" xml:space="preserve">
<style type="text/css">
	.st0{fill:#00000D;}
	.st1{fill:#000003;}
	.st2{fill:#000005;}
	.st3{fill:#00000F;}
	.st4{fill:#00000A;}
	.st5{fill:#000009;}
	.st6{fill:#000013;}
	.st7{fill:#000012;}
	.st8{fill:#000008;}
	.st9{fill:#000010;}
	.st10{fill:#000006;}
	.st11{fill:#00000C;}
	.st12{fill:#000011;}
	.st13{fill:none;stroke:#000011;stroke-miterlimit:10;}
	.st14{fill:#00000E;}
	.st15{fill:#00000B;}
	.st16{fill:#000002;}
	.st17{fill:#000007;}
	.st18{fill:#000004;}
	.st19{fill:#000001;}
</style>
<g>
	<path class="st0" d="M1183.5,304.1H983.8c-0.1-0.3-0.3-0.6-0.4-1c-1.3-5.7-4.5-10.1-8.7-13.9c-5.4-4.9-11.6-8.4-18.2-11.3
		c-10.1-4.4-20.7-7.2-31.5-9.3c-1.9-0.4-3.9-0.7-6-1.1c-0.1-0.5-0.3-1.1-0.2-1.6c0.1-10.9-0.1-21.8,0.4-32.7
		c0.6-14.4,2.8-28.5,5.6-42.6c2.5-12.2,5.5-24.3,10-35.9c8.5-21.9,20.7-41.5,35.7-59.5c18.7-22.4,40.8-40.5,66.3-54.6
		c0.6-0.3,1.2-0.6,2-1c1.8,1.8,3.5,3.7,5.3,5.4c12.4,11.8,26.7,20.8,42.2,28c17.3,8,35.3,13.5,54,16.9c11.2,2,22.5,3.4,33.9,3.9
		c3,0.1,6,0.3,9,0.4c0.1,0.1,0.2,0.1,0.2,0.2c0,0,0.1,0.1,0.1,0.2c0,0.2,0.1,0.4,0.1,0.6c0,69.2,0,138.4,0,207.6
		C1183.7,303.2,1183.6,303.6,1183.5,304.1"/>
	<path class="st1" d="M1456.2,268.6c-3.6,0.8-6.9,1.5-10.1,2.3c-9.2,2.2-18.1,5.2-26.6,9.5c-4.9,2.5-9.5,5.4-13.6,9.2
		c-4.1,3.8-7.2,8.3-8.4,13.9c0,0.2-0.2,0.4-0.3,0.7h-205.5V94.4c0.6,0,1.1-0.1,1.7-0.1c6.6-0.4,13.2-0.6,19.8-1.2
		c17.8-1.6,35.2-5.1,52.2-10.7c19-6.2,36.8-14.7,52.9-26.7c5.7-4.2,11.1-8.9,16.1-14c0.4-0.5,0.8-1,1.2-1.5c1.1,0.6,2,1,2.8,1.5
		c41.3,23.7,73,56.5,94.4,99.1c8.4,16.9,14.2,34.6,16.9,53.3c1.4,9.8,2.9,19.6,4,29.5c0.9,8.3,1.4,16.7,1.9,25
		c0.4,6,0.4,12,0.6,17.9C1456.2,267.1,1456.2,267.8,1456.2,268.6"/>
	<path class="st2" d="M1380,359.4c0.1-0.1,0.2-0.3,0.3-0.4c-0.9-0.7-1.7-1.5-2.6-1.9c-5.5-2.2-10.9-4.7-16.5-6.4
		c-14-4.4-28.5-6.6-43.1-7.5c-8.1-0.5-16.2-0.6-24.3-0.2c-8.8,0.4-17.5,1.3-26.2,3.1c-9,1.9-17.8,4.6-26.1,8.8
		c-3.2,1.6-6.2,3.6-8.8,6.2c-0.4,0.4-0.6,0.8-1,1.2c0.9-0.1,1.6-0.4,2.2-0.8c29.9-14.6,61.4-19.1,94.3-14.9
		c13.1,1.7,26,4.7,38.7,8.6C1371.4,356.5,1375.7,358,1380,359.4 M1238.3,404.7c2.6,0.6,5.2,1.2,7.7,1.7c9.2,1.9,18.3,3.9,27.2,6.9
		c6.1,2.1,12.5,3.4,18.9,4c7.7,0.7,15.2,0,22.6-2.2c9.5-2.7,19-5.7,28.5-8.5c0.3-0.1,0.5-0.3,0.7-0.4c-0.4-1.1-0.5-1.2-1.1-1.1
		c-1.2,0.2-2.4,0.4-3.5,0.6c-7.1,1.3-14.3,2.5-21.5,2.8c-4.4,0.2-8.8,0.6-13.3,0.9c-9.4,0.6-18.9,0.5-28.2-0.8
		c-8.4-1.2-16.7-2.6-25-3.9C1246.9,404.2,1242.7,403.8,1238.3,404.7 M1397.7,312.3c1.7,5.9,5.2,10.4,9.8,14.2c2.2,1.8,4.6,3.5,7,5
		c8.4,5.2,17.6,8.5,27,11.1c2.6,0.7,5.1,1.3,7.8,2c-0.3,4.9-0.5,9.8-0.8,14.6c-0.3,5-0.7,10-1,14.9c-0.5,6.9-1.1,13.7-1.6,20.6
		c-0.3,4.3-0.7,8.6-0.9,12.8c-0.1,1.9,0.2,3.8,0.2,5.7c-0.1,6.8-0.3,13.6-0.3,20.5c0,5.7,0.3,11.4,0.4,17.1c0,2-0.2,3.9-0.2,5.8
		c-2.6-0.1-5.1-0.1-7.5-0.1c-26.8,0-53.6,0-80.5,0h-139.2H1194h-2.4v-144C1193.2,312,1391.1,311.8,1397.7,312.3"/>
	<path class="st3" d="M1141.2,364c0.7-1.3,0.6-1.8-1-2.7c-3.3-1.9-6.6-3.7-9.9-5.7c-7.3-4.3-15.1-7.1-23.3-9.2
		c-12-3-24.3-4.2-36.6-3.7c-7.9,0.3-15.7,0.8-23.6,1.3c-7.2,0.5-14.4,1.5-21.5,3.3c-10.3,2.6-20.3,6.3-30.3,9.7
		c-1.1,0.4-2.1,1.4-3.1,2.1c-0.7,0.6-0.4,1.1,0.3,1.6c0.5-0.2,1.1-0.5,1.7-0.7c4.2-1.7,8.3-3.6,12.5-5.1c15.4-5.6,31.4-8.2,47.7-9.1
		c13.7-0.8,27.4-0.6,41,1.5c11.1,1.7,21.9,4.7,32.1,9.4C1131.9,358.9,1136.5,361.5,1141.2,364 M1132,404.7c0-0.1,0-0.3,0-0.4
		c-0.5-0.1-0.9-0.2-1.4-0.2c-4.7,0.2-9.4,0.2-14.1,0.8c-9.6,1.1-19.1,2.5-28.6,3.9c-7.8,1.1-15.6,1.8-23.5,1.4
		c-9.2-0.5-18.2-1.9-27.1-3.9c-2.7-0.6-5.4-0.8-8.2-0.4c0.7,0.4,1.4,0.7,2.1,1c6.7,2.4,13.4,4.7,20.1,7.1
		c11.1,4.1,22.4,4.8,33.8,2.3c11.7-2.6,23.2-5.6,34.8-8.4C1123.8,406.8,1127.9,405.8,1132,404.7 M1183.5,312.3v144.2H931.9
		c0-0.6-0.1-1.3-0.1-2c-0.1-9.2-0.1-18.4-0.2-27.7c0-2-0.1-4.1-0.3-6.1c-0.2-3.1-0.6-6.1-0.8-9.2c-0.5-7.7-0.9-15.5-1.4-23.2
		c-0.3-4.9-0.9-9.8-1.3-14.7c-0.6-6.4-1.3-12.7-2-19.1c-0.2-2-0.4-3.9-0.6-5.9c-0.1-0.8-0.1-1.7-0.2-2.7c2-0.4,3.9-0.8,5.8-1.2
		c10.7-2.4,21.1-5.5,30.9-10.5c2.9-1.5,5.8-3.2,8.5-5.1c6.1-4.2,11-9.4,13.2-16.8H1183.5z"/>
	<path class="st4" d="M1045.7,36c2.6-1.2,4.6-2.2,6.6-3.2c20-9.4,40.9-15.9,62.4-20.5c11.2-2.4,22.5-4.3,33.9-5.3
		c7.9-0.7,15.9-1.1,23.8-1.4c7-0.3,13.9-0.3,20.9-0.1c8.2,0.2,16.5,0.5,24.7,1.1c37.8,2.7,73.9,11.9,108,28.7
		c0.7,0.4,1.5,0.8,2.5,1.3c-0.7,0.8-1.3,1.4-2,2c-10.6,10.2-22.6,18.3-35.7,25c-17.6,8.9-36.3,14.9-55.6,18.6
		c-13.4,2.6-27,4-40.7,4.3c-31,0.8-61.2-3.5-90.3-14.2c-17-6.3-32.9-14.6-47.1-26.1C1053.3,43,1049.8,39.6,1045.7,36"/>
	<path class="st5" d="M1417.4,556.4h-101c13-30.7,25.9-61.3,38.9-91.9h89.1c-0.3,2.2-0.6,4.5-0.9,6.8c-2.3,14.4-6.5,28.3-11.9,41.9
		c-5.4,13.4-9.7,27.1-13.5,41C1417.9,554.9,1417.7,555.5,1417.4,556.4"/>
	<path class="st6" d="M1058.7,556.4H957.7c-0.2-0.4-0.3-0.7-0.5-1.1c-6.2-19.8-12.4-39.6-18.5-59.4c-2.1-7-3.9-14.1-5.5-21.2
		c-0.8-3.3-0.8-6.7-1.2-10.1h87.8C1032.7,494.9,1045.7,525.5,1058.7,556.4"/>
	<path class="st7" d="M1152.4,464.5c-28.6,30.6-56.8,60.9-85.3,91.3c-12.9-30.6-25.7-60.9-38.6-91.3H1152.4z"/>
	<path class="st8" d="M1346.7,464.5c-12.9,30.4-25.7,60.7-38.6,91.3c-28.5-30.5-56.7-60.7-85.3-91.3H1346.7z"/>
	<path class="st9" d="M924.3,337.9c-1.9-5.8-6-55.2-5.1-62.1c1.2,0.2,2.3,0.3,3.5,0.5c12.1,2.2,24,5.4,35.1,11
		c4.7,2.4,9.1,5.1,12.7,8.9c1.2,1.2,2.3,2.5,3.2,3.9c3.1,4.8,3.1,9.6,0,14.5c-1.8,2.8-4.1,5-6.6,7c-4.3,3.3-9,5.8-13.9,7.9
		c-9.1,3.9-18.6,6.5-28.2,8.4C924.7,338,924.5,337.9,924.3,337.9"/>
	<path class="st10" d="M1450,336.7c-11.6-2.8-22.6-6.3-32.6-12.6c-2.8-1.8-5.4-3.8-7.6-6.3c-1.2-1.4-2.4-3-3.3-4.6
		c-2.1-3.9-2.1-7.8,0-11.7c1.3-2.6,3.2-4.8,5.4-6.7c3.2-2.8,6.7-5.1,10.5-7.1c10.5-5.5,21.8-8.6,33.6-11c0,0.8,0.1,1.4,0.1,2.1
		c-0.6,8.1-1.2,16.3-2,24.4c-1.1,10.2-2.4,20.4-3.6,30.6C1450.3,334.7,1450.2,335.6,1450,336.7"/>
	<path class="st11" d="M71.3,405.9h219V32.7c-0.2-0.2-0.6-0.4-1-0.7c-3.9-2.5-7.9-4.9-11.8-7.4c-0.7-0.5-1.4-0.8-2.4-0.5
		c-17.3,6.2-34.6,12.2-51.1,20.3c-16.7,8.1-32.4,17.7-47.7,28.2c-9.7,6.6-19.2,13.5-28,21.3c-11.3,9.9-20.9,21.4-29.4,33.9
		c-15.4,22.5-27.5,46.8-37.2,72.3c-8.6,22.5-15.2,45.6-20.1,69.2c-1.5,7-2.2,14.1-2.7,21.3c-0.5,8-0.8,16-0.5,24
		c0.4,8.5,0.7,17.1,1.5,25.6c0.9,9.7,2.1,19.4,3.6,29c1.7,11.6,4.2,23.1,7.1,34.4C70.8,404.3,71,405.1,71.3,405.9"/>
	<path class="st0" d="M491.8,256.6c10.4-13,23.4-18.9,39.5-15.2c15.7,3.6,24.8,14.4,29.1,29.7h155.7c-0.8-2.6-1.4-5.2-2.3-7.7
		c-2.1-5.8-4.4-11.5-6.5-17.3c-3.9-10.5-6.9-21.3-10-32c-2.8-9.9-5.4-19.8-8.6-29.6c-6.2-19-15.4-36.6-27.2-52.8
		c-14.7-20.2-31.1-38.7-50-55.1c-24-20.8-51.1-36.3-80.9-47.3c-3-1.1-6-2.1-9-3.2c-0.8-0.3-1.5-0.3-2.2,0.2
		c-8.5,6-17.5,10.9-27,15.2c-0.2,0.1-0.4,0.3-0.7,0.4V256.6z"/>
	<path class="st12" d="M484.1,183.6h-186c-0.1,0.1-0.1,0.1-0.2,0.2c0,0-0.1,0.1-0.1,0.2c0,0.3-0.1,0.5-0.1,0.8c0,73.5,0,147,0,220.5
		c0,0.2,0.1,0.4,0.2,0.7h9.9c0-1.2,0-2.4,0-3.5c0.1-19.5,6.2-37.1,17.7-52.8c6.2-8.4,14.1-14.8,24.4-17.6c18-4.8,33.9-1,47.6,11.9
		c0.2,0.2,0.5,0.5,0.7,0.7c8.1,9.9,17.3,18.7,26.1,27.8c9.7,10,18.5,20.8,26.8,32c0.9,1.2,1.8,1.6,3.3,1.6c9.1-0.1,18.3,0,27.4,0
		h2.3V183.6z"/>
	<path class="st13" d="M484.1,183.6h-186c-0.1,0.1-0.1,0.1-0.2,0.2c0,0-0.1,0.1-0.1,0.2c0,0.3-0.1,0.5-0.1,0.8c0,73.5,0,147,0,220.5
		c0,0.2,0.1,0.4,0.2,0.7h9.9c0-1.2,0-2.4,0-3.5c0.1-19.5,6.2-37.1,17.7-52.8c6.2-8.4,14.1-14.8,24.4-17.6c18-4.8,33.9-1,47.6,11.9
		c0.2,0.2,0.5,0.5,0.7,0.7c8.1,9.9,17.3,18.7,26.1,27.8c9.7,10,18.5,20.8,26.8,32c0.9,1.2,1.8,1.6,3.3,1.6c9.1-0.1,18.3,0,27.4,0
		h2.3V183.6z"/>
	<path class="st6" d="M553.7,505.1v-91.5c-0.7,0-1.3-0.1-2-0.1c-21.2,0-42.4,0-63.6,0c-12.3,0-24.5-0.1-36.8,0
		c-1.4,0-2.2-0.6-2.9-1.6c-8-10.9-16.4-21.5-25.7-31.4c-4.2-4.5-8.8-8.7-13.2-12.9c-1.3-1.2-2.8-2.2-4.2-3.4
		c-3.9-3.3-7.1-7.3-10.7-10.9c-2.5-2.6-5-5.2-7.7-7.5c-13.3-11.2-35.1-12.7-49.9,3.2c-9.6,10.3-15.7,22.5-18.8,36.2
		c-1.9,8.7-2.4,17.4-1.8,26.3c1.4,21.4,8.7,40.8,20,58.8c7.5,12.1,16.4,23.2,26.5,33.1c1.2,1.2,2.4,1.7,4.2,1.7
		c61.3,0,122.6,0,183.9,0H553.7z"/>
	<path class="st3" d="M686.1,341.5c1.4,1,0.9,2.3,0.8,3.5c-0.4,6.7-1.1,13.3-1.4,20c-0.2,3.5-1.3,6.3-3.7,8.7
		c-0.4,0.4-0.7,0.8-1.1,1.2c-2.1,2.3-2.2,3-0.4,5.7c0.1,0.1,0.2,0.2,0.2,0.3c0.7,1.1,0.5,2.1-0.7,2.6c-0.8,0.3-1.8,0.4-2.7,0.4
		c-4.2-0.4-8.4-1.2-12.4-2.6c-5-1.8-9.9-3.7-14.9-5.5c-0.4-0.1-0.8-0.4-1.1-0.6c3.8-0.5,7.5-0.6,11.2,0.2c2.5,0.5,5,1.1,7.6,1.6
		c6.4,1.1,11.5-1.2,14.8-6.8c1.5-2.6,2.6-5.4,2.8-8.4c0.2-3.8,0.2-7.7,0.4-11.5C685.6,347.3,685.9,344.4,686.1,341.5 M713.4,323.2
		c-1.7-0.1-3.2-0.3-4.7-1c-10.8-5.1-21.7-5.2-32.7-0.7c-5.7,2.3-10.8,5.6-15.7,9.3c-4.3,3.2-8.5,6.6-12.7,9.9
		c-0.8,0.6-1.6,1.3-2.6,1.5c-0.9-1.1-0.1-1.7,0.5-2.3c3.2-2.9,6.3-5.9,9.6-8.6c6.2-5.3,13-9.8,20.6-12.9c6.2-2.5,12.6-4.1,19.3-3.5
		c6.5,0.6,12.3,3,17.7,6.5C713.4,321.8,713.9,322.2,713.4,323.2 M717.3,278.9H561.5c-0.3,2.8-0.5,5.6-0.9,8.3
		c-2.6,15.9-15.3,29.1-31.1,31.6c-14.6,2.4-26.6-2.6-36-13.9c-0.4-0.5-0.9-1.1-1.6-1.9v102.8h264.6c-0.4-0.6-0.8-1.2-1.1-1.7
		c-13.4-17.7-25.8-36.1-37.7-54.8c-0.7-1.2-1.4-2.4-2.2-3.6c-3.4-5-3.9-10.5-2.3-16.2c1.8-6.3,3.1-12.7,4-19.2
		c1.1-8.6,1.4-17.3,0.8-26C717.6,282.6,717.5,280.8,717.3,278.9"/>
	<path class="st14" d="M297.8,176h186.1c0.4-1.4,0.6-128.1,0.2-130.4C420.9,68,358.9,65.6,298.1,37c0,0-0.1,0-0.1,0.1
		c0,0-0.1,0.1-0.1,0.1c0,45.6-0.1,91.2-0.1,136.8C297.8,174.6,297.8,175.2,297.8,176"/>
	<path class="st15" d="M73.4,413.5C75,425.1,98.1,494,104.1,505h249.2c-0.7-0.8-1.2-1.4-1.7-2c-10-11.7-19.1-24.1-26.5-37.7
		c-8.2-15-13.6-31-16.3-47.9c-0.1-0.7-0.1-1.3-0.2-2c-0.1-0.6-0.2-1.2-0.4-1.9H73.4z"/>
	<path class="st7" d="M749.5,413.5H561.4c0,29.7,0,59.3,0,88.9c0,0,0.1,0.1,0.1,0.1c0.1,0,0.1,0.1,0.2,0.1c1.1-0.5,2.3-1,3.4-1.6
		c61.4-29,122.8-58,184.1-87C749.4,413.9,749.4,413.8,749.5,413.5"/>
	<path class="st4" d="M285.6,21.1c0.5,0.4,1.1,0.7,1.6,1.1c14.4,9,29.9,15.7,46.1,20.7c14.3,4.5,28.8,7.5,43.7,9.1
		c13.1,1.4,26.2,1.5,39.3,0.6c12.7-0.9,25.3-2.7,37.7-5.7c19.3-4.6,37.6-11.6,54.5-22c0.7-0.5,1.5-0.9,2.2-1.4
		c0.1-0.1,0.2-0.2,0.3-0.4c-0.4-0.2-0.8-0.4-1.2-0.5c-11.7-3.3-23.5-5.9-35.5-7.5c-8.5-1.2-17.1-2.4-25.6-3.4
		c-6.8-0.8-13.7-1.3-20.6-1.8c-12.1-0.8-24.2-1.3-36.3-1.2c-10.1,0.1-20.1,0.2-30.2,0.4c-4.8,0.1-9.7,0.3-14.5,0.6
		c-14.7,0.8-29.3,2.2-43.6,5.9c-6,1.5-11.8,3.4-17.7,5C285.6,20.8,285.6,20.9,285.6,21.1"/>
	<path class="st9" d="M524.8,312c10.3-0.4,19.3-6,25.1-16.6c6.8-12.5,4.5-28.3-5.4-38.4c-11.7-12-30.4-12.3-42.5-0.6
		c-15.8,15.2-12.2,41.9,7,52.2C513.2,310.8,518,312,524.8,312"/>
	<path class="st16" d="M736.6,1346.4h-219V973.1c0.2-0.2,0.6-0.4,1-0.7c3.9-2.5,7.9-4.9,11.8-7.4c0.7-0.5,1.4-0.8,2.4-0.5
		c17.3,6.2,34.6,12.2,51.1,20.3c16.7,8.1,32.4,17.7,47.7,28.2c9.7,6.6,19.2,13.5,28,21.3c11.3,10,20.9,21.4,29.4,33.9
		c15.4,22.5,27.5,46.8,37.2,72.3c8.6,22.5,15.2,45.6,20.1,69.2c1.5,7,2.2,14.1,2.7,21.3c0.5,8,0.8,16,0.5,24
		c-0.4,8.5-0.7,17.1-1.5,25.6c-0.9,9.7-2.1,19.4-3.6,29c-1.7,11.6-4.2,23.1-7.1,34.4C737,1344.8,736.8,1345.6,736.6,1346.4"/>
	<path class="st1" d="M316,1197.1c-10.4-13-23.4-18.9-39.5-15.2c-15.7,3.6-24.8,14.4-29.1,29.7H91.7c0.8-2.6,1.4-5.2,2.3-7.7
		c2.1-5.8,4.4-11.5,6.5-17.3c3.9-10.5,6.9-21.3,10-32c2.8-9.9,5.4-19.8,8.6-29.6c6.2-19,15.4-36.6,27.2-52.8
		c14.7-20.2,31.1-38.7,50-55.1c24-20.8,51.1-36.3,80.9-47.3c3-1.1,6-2.1,9-3.2c0.8-0.3,1.5-0.3,2.2,0.2c8.5,6,17.5,11,27,15.2
		c0.2,0.1,0.4,0.3,0.7,0.4V1197.1z"/>
	<path class="st17" d="M323.7,1124h186c0.1,0.1,0.1,0.1,0.2,0.2c0,0,0.1,0.1,0.1,0.2c0,0.3,0.1,0.5,0.1,0.8c0,73.5,0,147,0,220.5
		c0,0.2-0.1,0.4-0.2,0.7H500c0-1.2,0-2.4,0-3.5c-0.1-19.5-6.2-37.1-17.7-52.8c-6.2-8.4-14.1-14.8-24.4-17.6
		c-18-4.8-33.9-1-47.6,11.9c-0.2,0.2-0.5,0.5-0.7,0.7c-8.1,9.9-17.3,18.7-26.1,27.8c-9.7,10-18.5,20.8-26.8,32
		c-0.9,1.2-1.8,1.6-3.3,1.6c-9.1-0.1-18.3,0-27.4,0h-2.3V1124z"/>
	<path class="st5" d="M254.1,1445.5v-91.5c0.7,0,1.3-0.1,2-0.1c21.2,0,42.4,0,63.6,0c12.3,0,24.5-0.1,36.8,0c1.4,0,2.2-0.6,2.9-1.6
		c8-10.9,16.4-21.5,25.7-31.4c4.2-4.5,8.8-8.7,13.2-12.9c1.3-1.2,2.8-2.2,4.2-3.4c3.9-3.3,7.1-7.3,10.7-10.9c2.5-2.6,5-5.2,7.7-7.5
		c13.3-11.2,35.1-12.7,49.9,3.2c9.6,10.3,15.7,22.5,18.8,36.2c1.9,8.7,2.4,17.4,1.8,26.3c-1.4,21.4-8.7,40.8-20,58.8
		c-7.5,12.1-16.4,23.2-26.5,33.1c-1.2,1.2-2.4,1.7-4.2,1.7c-61.3,0-122.6,0-183.9,0H254.1z"/>
	<path class="st2" d="M121.7,1281.9c-1.4,1-0.9,2.3-0.8,3.5c0.4,6.7,1.1,13.3,1.4,20c0.2,3.4,1.3,6.3,3.7,8.7
		c0.4,0.4,0.7,0.8,1.1,1.2c2.1,2.3,2.2,3,0.4,5.7c-0.1,0.1-0.2,0.2-0.2,0.3c-0.7,1.1-0.5,2.1,0.7,2.6c0.8,0.3,1.8,0.4,2.7,0.4
		c4.2-0.4,8.4-1.2,12.4-2.6c5-1.8,9.9-3.7,14.9-5.5c0.4-0.1,0.8-0.4,1.1-0.6c-3.8-0.5-7.5-0.6-11.2,0.2c-2.5,0.5-5,1.1-7.6,1.6
		c-6.4,1.1-11.5-1.2-14.8-6.8c-1.5-2.6-2.6-5.4-2.8-8.4c-0.2-3.8-0.2-7.7-0.4-11.5C122.2,1287.7,121.9,1284.8,121.7,1281.9
		 M94.4,1263.6c1.7-0.1,3.2-0.3,4.7-1c10.8-5.1,21.7-5.2,32.7-0.7c5.7,2.3,10.8,5.6,15.7,9.3c4.3,3.2,8.5,6.6,12.7,9.9
		c0.8,0.6,1.6,1.3,2.6,1.5c0.9-1.1,0.1-1.7-0.5-2.3c-3.2-2.9-6.3-5.9-9.6-8.6c-6.2-5.3-13-9.8-20.6-12.9c-6.2-2.5-12.6-4.1-19.3-3.5
		c-6.5,0.6-12.3,3-17.7,6.5C94.4,1262.2,93.9,1262.6,94.4,1263.6 M90.5,1219.3h155.9c0.3,2.8,0.5,5.6,0.9,8.3
		c2.6,15.9,15.3,29.1,31.1,31.6c14.6,2.4,26.6-2.6,36-13.9c0.4-0.5,0.9-1.1,1.6-1.9v102.8H51.4c0.4-0.6,0.8-1.2,1.1-1.7
		c13.4-17.7,25.8-36.1,37.7-54.8c0.7-1.2,1.4-2.4,2.2-3.6c3.4-5,3.9-10.5,2.3-16.2c-1.8-6.3-3.1-12.7-4-19.2
		c-1.1-8.6-1.4-17.3-0.8-26C90.2,1223,90.3,1221.2,90.5,1219.3"/>
	<path class="st18" d="M510.1,1116.4H323.9c-0.4-1.4-0.6-128.1-0.2-130.4c63.1,22.4,125.1,19.9,185.9-8.7c0,0,0.1,0,0.1,0.1
		c0,0,0.1,0.1,0.1,0.1c0,45.6,0.1,91.2,0.1,136.8C510.1,1115,510.1,1115.6,510.1,1116.4"/>
	<path class="st19" d="M734.4,1354c-1.6,11.5-24.8,80.5-30.7,91.4H454.5c0.7-0.8,1.2-1.4,1.7-2c10-11.7,19.1-24.1,26.5-37.7
		c8.2-15,13.6-31,16.3-47.9c0.1-0.7,0.1-1.3,0.2-2c0.1-0.6,0.2-1.2,0.4-1.9H734.4z"/>
	<path class="st8" d="M58.3,1354h188.1c0,29.7,0,59.3,0,88.9c0,0-0.1,0.1-0.1,0.1c-0.1,0-0.1,0.1-0.2,0.1c-1.1-0.5-2.3-1-3.4-1.6
		c-61.4-29-122.8-58-184.1-87C58.5,1354.4,58.4,1354.2,58.3,1354"/>
	<path class="st4" d="M522.2,961.5c-0.5,0.4-1.1,0.7-1.6,1.1c-14.4,9-29.9,15.7-46.1,20.7c-14.3,4.5-28.8,7.5-43.7,9.1
		c-13.1,1.4-26.2,1.5-39.3,0.6c-12.7-0.9-25.3-2.7-37.7-5.7c-19.3-4.6-37.6-11.6-54.5-22c-0.7-0.5-1.5-0.9-2.2-1.4
		c-0.1-0.1-0.2-0.2-0.4-0.4c0.4-0.2,0.8-0.4,1.2-0.5c11.7-3.3,23.5-5.9,35.5-7.5c8.5-1.2,17-2.4,25.6-3.4c6.8-0.8,13.7-1.3,20.6-1.8
		c12.1-0.8,24.2-1.3,36.3-1.2c10.1,0.1,20.1,0.2,30.2,0.4c4.8,0.1,9.7,0.3,14.5,0.6c14.7,0.8,29.3,2.2,43.6,5.9
		c6,1.5,11.8,3.4,17.7,5C522.2,961.2,522.2,961.4,522.2,961.5"/>
	<path class="st10" d="M283,1252.5c-10.3-0.4-19.3-6-25.1-16.6c-6.8-12.5-4.5-28.3,5.4-38.4c11.7-12,30.4-12.3,42.5-0.6
		c15.8,15.2,12.2,41.9-7,52.2C294.6,1251.3,289.8,1252.4,283,1252.5"/>
	<path class="st11" d="M1194.4,1350.4V972.3c0.4-0.1,0.6-0.2,0.9-0.2c10.2-0.1,20.3-0.8,30.4-2.2c28.8-3.8,56.2-12,81.4-26.8
		c3.1-1.8,6.2-3.8,9.2-5.8c1.1-0.7,1.9-0.8,3-0.2c30.9,14.2,57.8,33.8,80.1,59.7c10.9,12.6,20.6,25.9,28.4,40.7
		c9.8,18.7,16.6,38.4,20.4,59.2c2.3,12.8,3.8,25.6,4.6,38.5c0.8,11.7,1.4,23.4,1,35.1c-0.3,9.7-0.7,19.3-1.2,29
		c-0.1,1.2-0.5,2.5-1,3.6c-13.5,29.7-27,59.3-40.5,88.9c-8.6,18.9-17.2,37.7-25.8,56.6c-0.3,0.6-0.6,1.2-0.9,1.9H1194.4z"/>
	<path class="st16" d="M1064.3,935.7c0.4,0.2,0.8,0.4,1.1,0.7c18,12.5,37.8,21,58.8,26.9c13.7,3.8,27.5,6.4,41.6,7.6
		c6.3,0.5,12.6,0.8,19,1.2c0.4,0,0.8,0.1,1.2,0.1c0.5,1.6,0.7,374,0.2,378c-1.5,0.4-182,0.6-185.8,0.2c-0.3-0.6-0.6-1.3-0.9-2
		c-23.3-51.1-46.5-102.1-69.8-153.2c-0.7-1.5-1-3-1.1-4.6c-1.5-16.2-2.4-32.5-1.3-48.8c1.3-20.1,3.8-40.1,8.6-59.7
		c7.8-32.1,23-60.4,44.7-85.2c23-26.3,50.5-46.5,82.5-60.6C1063.4,936.1,1063.9,935.9,1064.3,935.7"/>
	<path class="st15" d="M1448.9,1228.7c-0.3,2.6-0.7,5.2-1,7.8c-1.4,9.9-2.2,19.9-2.1,30c0,0.8,0,1.7-0.1,2.5c-0.3,2.1-0.8,2.5-3,2.7
		c-1.7,0.1-3.3,0.3-5,0.5c-0.5,0.1-1.1,0.2-1.6,0.3c1.6,7.2,5.3,8.7,13.1,5.4c-0.2,0.6-0.2,1.1-0.4,1.6c-3.8,10.2-6.4,20.7-7.8,31.6
		c-1,8.2-1.1,16.4-1,24.6c0.1,10.6,0.6,21.2,1.8,31.7c0.5,5,1.5,9.9,2.3,14.8c0.4,2.2,1.4,4.2,2.9,5.9c1.3,1.4,2.5,3,4,4.9
		c0-0.9,0-1.3,0-1.8c-0.6-8.8-1.2-17.5-1.9-26.3c-0.4-5.5-0.9-11-1.5-16.4c-0.7-7.8-0.9-15.6-0.4-23.4c0.9-15.8,5.4-30.8,10.8-45.5
		c1.7-4.6,3.4-9.1,5.1-13.7c0.4-1.1,0.9-2.2,1.6-3.1c1.3-1.9,3.2-2.5,5.3-1.6c1.3,0.5,2.7,1.2,3.8,2.1c5.4,4.3,7.2,10.2,6.7,16.7
		c-0.5,6.1-1.2,12.2-2,18.3c-1.5,11.5-3.2,22.9-4.9,34.3c-0.5,3.5-1.4,6.9-2.2,10.4c-1.1,5-1.5,10-0.2,15.1c0.3,1.2,0,2.6-0.2,3.9
		c-1.2,5.5-2.6,11-3.7,16.5c-0.7,3.4-1,6.9-1.5,10.3c-1.8,12.2-5.7,23.8-11.5,34.7c-1,2-1.6,3.9-1.7,6.1c-0.2,5.6-1.2,11.1-3.6,16.2
		c-5.2,10.7-13.8,17.1-25.3,19.6c-5.1,1.1-9.7-0.3-13.3-4.3c-1.6-1.8-3-3.6-4.5-5.5c-2.5-3.1-5-6.3-7.6-9.5
		c-0.3-0.4-0.6-0.7-1.2-1.2c0,0.7,0,1.1,0.1,1.5c0.6,3,1.2,6,1.9,9c1.2,5.9,4.2,10.9,8.6,15c0.6,0.6,1.2,1.1,1.8,1.8
		c0.8,0.9,1.1,1.9,0.8,3.1c-2.4,10-4,20.2-6.8,30.1c-4,14.1-8.6,28-15.5,40.9c-2.4,4.4-4.9,8.8-7.7,12.9c-2.6,3.6-3.8,7.5-4.4,11.8
		c-1.4,10.6-3.1,21.1-4.6,31.6c0,0.2-0.1,0.3-0.4,1c-0.4-1-0.7-1.7-0.9-2.4c-17-45.5-33.9-91-50.9-136.6c-0.1-0.3-0.2-0.5-0.3-0.8
		c-1.2-3.2-2-3.7-5.4-3.7c-38.8,0-77.6,0-116.4,0h-2.8v-101.9c1,0,1.9,0,2.8,0c62.4,0,124.7,0,187.1,0c5.1,0,5.1,0,7.2-4.6
		c18.7-41,37.4-82.1,56.2-123.1c0.3-0.6,0.6-1.2,0.9-1.9C1448.6,1228.7,1448.7,1228.7,1448.9,1228.7"/>
	<path class="st4" d="M1073.1,932.1c0.8-0.4,1.3-0.6,1.8-0.8c17.6-6.9,35.8-11.9,54.5-14.5c12.9-1.8,25.8-3.4,38.8-4.4
		c12.1-0.9,24.2-0.9,36.3-0.3c5.6,0.3,11.3,0.6,16.9,0.9c20,1.1,39.5,4.6,58.8,9.9c9,2.5,17.8,5.4,26.5,8.8c0.6,0.2,1.2,0.5,2.2,0.9
		c-0.8,0.6-1.4,1-2,1.4c-13.9,8.7-28.8,15.2-44.4,20c-13.3,4.1-26.8,6.8-40.6,8.5c-10,1.2-20,1.7-30,1.7c-11.5,0-23-0.7-34.4-2.2
		c-27.6-3.8-53.8-11.7-77.9-25.9C1077.4,934.9,1075.4,933.5,1073.1,932.1"/>
	<path class="st19" d="M951.4,1267c0.5-0.3,1.1-0.4,1.6-0.6c-0.1-0.6-0.2-1.3-0.4-1.9c-6.6-14.6-13.3-29.2-20-43.9
		c-0.2-0.4-0.4-0.7-0.7-1c-0.1,2.3,0.1,4.5,0.4,6.8c1.1,10.4,2.2,20.9,3.3,31.3c0.4,3.4,0.6,6.8,1,10.2c0.3,2.7,2.5,4.3,5.2,3.7
		c0.9-0.2,1.9-0.5,2.7-1C946.8,1269.4,949.1,1268.2,951.4,1267 M953,1266.4C953,1266.4,953.1,1266.3,953,1266.4
		C953.1,1266.4,953,1266.4,953,1266.4C953,1266.4,953,1266.4,953,1266.4 M953,1266.4C953,1266.4,953,1266.4,953,1266.4
		C953,1266.4,953.1,1266.4,953,1266.4L953,1266.4z M1186,1358.3h-2.6c-61,0-122.1,0-183.1,0c-0.8,0-1.7,0-2.5,0
		c-1.5-0.1-2.6-0.8-3.4-2.1c-0.3-0.6-0.5-1.1-0.8-1.7c-13.1-28.8-26.2-57.5-39.3-86.3c-0.3-0.7-0.8-1.2-1.3-1.8
		c-2.5,3.6-4.9,7.3-7.6,10.8c-2,2.5-4.8,2.9-7.8,1.8c-0.9-0.4-1.9-0.8-3-1.3c0.3,0.8,0.4,1.4,0.6,2c0.6,1.9,1.3,3.8,2,5.7
		c7,22.1,8.2,44.7,6.1,67.6c-1,10.3-2.5,20.6-4.4,30.8c-0.1,0.8-0.4,1.6-0.6,2.5c-1.7-0.3-3.3-0.5-5-0.7c0.1-1.1,0.1-2.1,0.2-3.1
		c0.3-3.8,0.6-7.6,0.9-11.5c0.2-2.9,0.3-5.8,0.5-8.8c0.7-12.4,1.5-24.9,1.3-37.4c-0.1-6.9-0.7-13.8-2.1-20.5
		c-2.8-13.5-7.6-26.3-13.4-38.8c-0.2-0.4-0.4-0.9-0.7-1.3c-2.3-3.8-5.6-4.5-9.1-1.8c-0.4,0.3-0.9,0.7-1.3,1.1
		c-5.4,5-7.2,11.3-6.5,18.4c0.5,5,1.2,10,1.8,14.9c1.8,13.7,4,27.4,6.6,41c1,5.4,1.8,10.8,1.4,16.4c-0.4,5.7,0.2,11.3,1.5,16.8
		c3,13,6.1,26,9.3,39c0.2,0.9,0.7,1.8,1.2,2.7c1.4,2.8,3,5.5,4,8.5c1.3,3.8,2,7.8,2.9,11.7c0.7,3.1,1,6.4,1.8,9.4
		c3.7,13.3,17.1,23.2,31,23.2c2.9,0,5.4-0.9,7.4-2.9c2.1-2.2,4.1-4.5,5.9-7c1.8-2.4,3.3-5,4.9-7.5c0.3-0.4,0.6-0.8,1.2-1.6
		c0.1,1.5,0.3,2.6,0.3,3.7c0,2.2,0.4,4.5,0,6.7c-1.5,7.2-5.3,12.9-11.5,17c-1.7,1.1-1.8,1.1-1.3,3.2c1.4,6,2.9,12.1,4.3,18.1
		c4.1,17.2,9.6,33.9,17.6,49.7c0.4,0.7,0.7,1.5,1.3,2.2c4.3,5.2,7,11.3,8.3,17.8c1.7,8.3,3.1,16.6,4.5,24.8c0.5,2.8,1,5.7,1.4,8.5
		c0.6-0.6,0.9-1.2,1.1-1.8c14.5-37.7,29-75.4,43.5-113c2.5-6.6,5.1-13.3,7.6-19.9c0.6-1.5,1.4-2.8,3.1-3.1c0.7-0.1,1.5-0.1,2.3-0.1
		c21.7,0,43.5,0,65.2,0c17.4,0,34.8,0,52.3,0c0.8,0,1.6,0,2.4-0.1C1186.7,1455.4,1186.5,1360,1186,1358.3"/>
</g>
</svg>
