[
    {
        "opcoes": [
            {
                "_id": "mm-qualidade-dor-peso",
                "nome": "peso",
                "ativo": true,
                "tipo": 0
            },
            {
                "_id": "mm-qualidade-dor-pontada",
                "nome": "pontada",
                "ativo": true,
                "tipo": 0
            },
            {
                "_id": "mm-qualidade-dor-explosao",
                "nome": "explosão",
                "ativo": true,
                "tipo": 0
            },
            {
                "_id": "mm-qualidade-dor-pressao",
                "nome": "pressão",
                "ativo": true,
                "tipo": 0
            },
            {
                "_id": "mm-qualidade-dor-pulsatil",
                "nome": "pulsátil",
                "ativo": true,
                "tipo": 0
            }
        ]
    },
    {
        "opcoes": [
            {
                "_id": "mm-sintomas-vomito",
                "nome": "vômito",
                "ativo": true,
                "tipo": 0
            },
            {
                "_id": "mm-sintomas-tontura",
                "nome": "tontura",
                "ativo": true,
                "tipo": 0
            },
            {
                "_id": "mm-sintomas-congestao-nasal",
                "nome": "congestão nasal",
                "ativo": true,
                "tipo": 0
            },
            {
                "_id": "mm-sintomas-intolerancia-luz",
                "nome": "intolerância a luz",
                "ativo": true,
                "tipo": 0
            },
            {
                "_id": "mm-sintomas-intolerancia-barulho",
                "nome": "intolerância ao barulho",
                "ativo": true,
                "tipo": 0
            },
            {
                "_id": "mm-sintomas-dor-pescoco",
                "nome": "dor no pescoço",
                "ativo": true,
                "tipo": 0
            },
            {
                "_id": "mm-sintomas-alteracoes-visao",
                "nome": "alterações na visão",
                "ativo": true,
                "tipo": 0
            }
        ]
    },
    {
        "opcoes": [
            {
                "_id": "mm-gatilho-menstruacao",
                "nome": "menstruação",
                "ativo": true,
                "tipo": 0
            },
            {
                "_id": "mm-gatilho-ansiedade",
                "nome": "ansiedade",
                "ativo": true,
                "tipo": 0
            },
            {
                "_id": "mm-gatilho-estresse",
                "nome": "estresse",
                "ativo": true,
                "tipo": 0
            },
            {
                "_id": "mm-gatilho-falta-sono",
                "nome": "falta de sono",
                "ativo": true,
                "tipo": 0
            },
            {
                "_id": "mm-gatilho-jejum",
                "nome": "jejum",
                "ativo": true,
                "tipo": 0
            },
            {
                "_id": "mm-gatilho-esforco-fisico",
                "nome": "esforço físico",
                "ativo": true,
                "tipo": 0
            },
            {
                "_id": "mm-gatilho-bebida",
                "nome": "bebida",
                "ativo": true,
                "tipo": 0
            },
            {
                "_id": "mm-gatilho-comida",
                "nome": "comida",
                "ativo": true,
                "tipo": 0
            }
        ]
    },
    {
        "opcoes": [
            {
                "_id": "mm-gatilho-esforco-fisico-corrida",
                "nome": "corrida",
                "ativo": true,
                "tipo": 0
            },
            {
                "_id": "mm-gatilho-esforco-fisico-academia",
                "nome": "academia",
                "ativo": true,
                "tipo": 0
            },
            {
                "_id": "mm-gatilho-esforco-fisico-esportes",
                "nome": "esportes",
                "ativo": true,
                "tipo": 0
            },
            {
                "_id": "mm-gatilho-esforco-fisico-tosse",
                "nome": "tosse",
                "ativo": true,
                "tipo": 0
            },
            {
                "_id": "mm-gatilho-esforco-fisico-sexo",
                "nome": "sexo",
                "ativo": true,
                "tipo": 0
            }
        ]
    },
    {
        "opcoes": [
            {
                "_id": "mm-gatilho-bebida-cafe",
                "nome": "café",
                "ativo": true,
                "tipo": 0
            },
            {
                "_id": "mm-gatilho-bebida-cerveja",
                "nome": "cerveja",
                "ativo": true,
                "tipo": 0
            },
            {
                "_id": "mm-gatilho-bebida-destilado",
                "nome": "destilado",
                "ativo": true,
                "tipo": 0
            },
            {
                "_id": "mm-gatilho-bebida-vinho",
                "nome": "vinho",
                "ativo": true,
                "tipo": 0
            }
        ]
    },
    {
        "opcoes": [
            {
                "_id": "mm-gatilho-comida-chocolate",
                "nome": "chocolate",
                "ativo": true,
                "tipo": 0
            },
            {
                "_id": "mm-gatilho-comida-chinesa",
                "nome": "comida chinesa",
                "ativo": true,
                "tipo": 0
            },
            {
                "_id": "mm-gatilho-comida-frituras",
                "nome": "frituras",
                "ativo": true,
                "tipo": 0
            },
            {
                "_id": "mm-gatilho-comida-queijo",
                "nome": "queijo",
                "ativo": true,
                "tipo": 0
            },
            {
                "_id": "mm-gatilho-comida-salsicha-embutidos",
                "nome": "salsicha e embutidos",
                "ativo": true,
                "tipo": 0
            }
        ]
    },
    {
        "opcoes": [
            {
                "_id": "mm-ciclo-menstrual-antes",
                "nome": "não, mas está perto",
                "ativo": true,
                "tipo": 0
            },
            {
                "_id": "mm-ciclo-menstrual-sim",
                "nome": "sim",
                "ativo": true,
                "tipo": 0
            },
            {
                "_id": "mm-ciclo-menstrual-nao",
                "nome": "não",
                "ativo": true,
                "tipo": 0
            }
        ]
    },
    {
        "opcoes": [
            {
                "_id": "mm-metodo-alivio-banho",
                "nome": "banho",
                "ativo": true,
                "tipo": 0
            },
            {
                "_id": "mm-metodo-alivio-massagem",
                "nome": "massagem",
                "ativo": true,
                "tipo": 0
            },
            {
                "_id": "mm-metodo-alivio-quarto-escuro",
                "nome": "quarto escuro",
                "ativo": true,
                "tipo": 0
            },
            {
                "_id": "mm-metodo-alivio-relaxamento",
                "nome": "relaxamento",
                "ativo": true,
                "tipo": 0
            },
            {
                "_id": "mm-metodo-alivio-compressa",
                "nome": "compressas",
                "ativo": true,
                "tipo": 0
            },
            {
                "_id": "mm-metodo-alivio-repouso",
                "nome": "repouso",
                "ativo": true,
                "tipo": 0
            }
        ]
    },
    {
        "opcoes": [
            {
                "_id": "mm-consequencia-falta-escola",
                "nome": "falta na escola",
                "ativo": true,
                "tipo": 0
            },
            {
                "_id": "mm-consequencia-falta-trabalho",
                "nome": "falta no trabalho",
                "ativo": true,
                "tipo": 0
            },
            {
                "_id": "mm-consequencia-atividades-sociais",
                "nome": "atividades sociais",
                "ativo": true,
                "tipo": 0
            }
        ]
    },
    {
        "opcoes": [
            {
                "_id": "mm-local-trabalho",
                "nome": "no trabalho",
                "ativo": true,
                "tipo": 0
            },
            {
                "_id": "mm-local-transito",
                "nome": "em trânsito",
                "ativo": true,
                "tipo": 0
            },
            {
                "_id": "mm-local-casa",
                "nome": "em casa",
                "ativo": true,
                "tipo": 0
            },
            {
                "_id": "mm-local-escola",
                "nome": "na escola",
                "ativo": true,
                "tipo": 0
            }
        ]
    },
    {
        "opcoes": [
            {
                "_id": "1",
                "nome": "cervical ou nucal esquerda",
                "ativo": true,
                "tipo": 0
            },
            {
                "_id": "2",
                "nome": "occipital esquerda",
                "ativo": true,
                "tipo": 0
            },
            {
                "_id": "3",
                "nome": "frontal esquerda",
                "ativo": true,
                "tipo": 0
            },
            {
                "_id": "4",
                "nome": "parietal esquerda",
                "ativo": true,
                "tipo": 0
            },
            {
                "_id": "5",
                "nome": "orbitária esquerda",
                "ativo": true,
                "tipo": 0
            },
            {
                "_id": "6",
                "nome": "artéria temporal profunda posterior esquerda",
                "ativo": true,
                "tipo": 0
            },
            {
                "_id": "7",
                "nome": "temporal esquerda",
                "ativo": true,
                "tipo": 0
            },
            {
                "_id": "8",
                "nome": "maxilar esquerda",
                "ativo": true,
                "tipo": 0
            },
            {
                "_id": "9",
                "nome": "auricular  e ATM esquerda",
                "ativo": true,
                "tipo": 0
            },
            {
                "_id": "10",
                "nome": "vértex",
                "ativo": true,
                "tipo": 0
            },
            {
                "_id": "11",
                "nome": "cervical ou nucal direita",
                "ativo": true,
                "tipo": 0
            },
            {
                "_id": "12",
                "nome": "occipital direita",
                "ativo": true,
                "tipo": 0
            },
            {
                "_id": "13",
                "nome": "frontal direita",
                "ativo": true,
                "tipo": 0
            },
            {
                "_id": "14",
                "nome": "parietal direita",
                "ativo": true,
                "tipo": 0
            },
            {
                "_id": "15",
                "nome": "orbitária direita",
                "ativo": true,
                "tipo": 0
            },
            {
                "_id": "16",
                "nome": "artéria temporal profunda posterior direita",
                "ativo": true,
                "tipo": 0
            },
            {
                "_id": "17",
                "nome": "temporal direita",
                "ativo": true,
                "tipo": 0
            },
            {
                "_id": "18",
                "nome": "maxilar direita",
                "ativo": true,
                "tipo": 0
            },
            {
                "_id": "19",
                "nome": "maxilar direita",
                "ativo": true,
                "tipo": 0
            }
        ]
    }
]